﻿Cluster,cluster,code,title
,"Bugs, Defects, Smells",LPD13,The Eclipse and Mozilla Defect Tracking Dataset: A Genuine Dataset for Mining Bug Information
,"Bugs, Defects, Smells",MKLG14,The Bug Catalog of the Maven Ecosystem
,"Bugs, Defects, Smells",LRS14,Generating Duplicate Bug Datasets
,"Bugs, Defects, Smells",MHK14,A Dataset of Clone References with Gaps
,"Bugs, Defects, Smells",SSOL14,A Dataset for Maven Artifacts and Bug Patterns Found in Them
,"Bugs, Defects, Smells",KL14,A Code Clone Oracle
,"Bugs, Defects, Smells",PNTB15,Landfill: An Open Dataset of Code Smells with Public Evaluation
,"Bugs, Defects, Smells",HMMB15a,The Firefox Temporal Defect Dataset
,"Bugs, Defects, Smells",OKYY15,A Dataset of High Impact Bugs: Manually-classified Issue Reports
,"Bugs, Defects, Smells",ZZM16,Multi-extract and Multi-level Dataset of Mozilla Issue Tracking History
,"Bugs, Defects, Smells",ANNN16,MUBench: A Benchmark for API-misuse Detectors
,"Bugs, Defects, Smells",MK17,Continuous Defect Prediction: The Idea and a Related Dataset
,"Bugs, Defects, Smells",SBM17,Rediscovery Datasets: Connecting Duplicate Reports
,"Bugs, Defects, Smells",SLLY18,"Bugs.Jar: A Large-scale, Diverse Dataset of Real-world Java Bugs"
,"Bugs, Defects, Smells",YLYW18,A Dataset of Duplicate Pull-requests in GitHub
,"Bugs, Defects, Smells",GMS18,VulinOSS: A Dataset of Security Vulnerabilities in Open-source Systems
,"Bugs, Defects, Smells",GYJL18a,JBench: A Dataset of Data Races for Concurrency Testing
"Bugs, Defects, Smells","Computing Education, Programming Habits & Skills",MLRW05,Mining Student CVS Repositories for Performance Indicators
Software Evolution,"Computing Education, Programming Habits & Skills",SSHP05,Software Repository Mining with Marmoset: An Automated Programming Project Snapshot and Testing System
,"Computing Education, Programming Habits & Skills",BWYS13,INVocD: Identifier Name Vocabulary Dataset
,"Computing Education, Programming Habits & Skills",MK13,Apache Commits: Social Network Dataset
,"Computing Education, Programming Habits & Skills",BLPH13,A Dataset for Evaluating Identifier Splitters
,"Computing Education, Programming Habits & Skills",SB15,A Dataset for API Usage
,"Computing Education, Programming Habits & Skills",AHMR17,"A Dataset of Scratch Programs: Scraped, Shaped and Scored"
,Human-centered Data,Squ13a,Apache-affiliated Twitter Screen Names: A Dataset
,Human-centered Data,RASV14,"FLOSS 2013: A Survey Dataset about Free Software Contributors: Challenges for Curating, Sharing, and Combining"
,Human-centered Data,VSF15a,A Data Set for Social Diversity Studies of GitHub Teams
,Human-centered Data,OMDT16,The Emotional Side of Software Developers in JIRA
,Human-centered Data,YPKG18a,Developer Interaction Traces Backed by IDE Screen Recordings from Think Aloud Sessions
,Human-centered Data,NCL18,A Gold Standard for Emotion Annotation in Stack Overflow
,Mobile Application Data & Metadata,MBR13,Gerrit Software Code Review Data from Android
,Mobile Application Data & Metadata,KMMR15,A Dataset of Open-source Android Applications
,Mobile Application Data & Metadata,ABKL16,AndroZoo: Collecting Millions of Android Apps for the Research Community
,Mobile Application Data & Metadata,GMPP18a,A Graph-based Dataset of Commit History of Real-world Android Apps
Repository Data & Metadata,Repository Data & Metadata,CHC05,Collaboration Using OSSmole: A Repository of FLOSS Data and Analyses 
Software Development Process,Repository Data & Metadata,KZKH06,TA-RE: An Exchange Language for Mining Software Repositories
"Computing Education, Programming Habits & Skills",Repository Data & Metadata,NZ10,The Ultimate Debian Database: Consolidating Bazaar Metadata for Quality Assurance and Data Mining
Human-centered Data,Repository Data & Metadata,KFHE12,A Linked Data Platform for Mining Software Repositories
,Repository Data & Metadata,RVV13,"The Maven Repository Dataset of Metrics, Changes, and Dependencies"
,Repository Data & Metadata,Gou13,The GHTorent Dataset and Tool Suite
,Repository Data & Metadata,JHSA13,An Unabridged Source Code Dataset for Research in Software Reuse
,Repository Data & Metadata,FTC14,OpenHub: A Scalable Architecture for the Analysis of Software Quality Attributes
,Repository Data & Metadata,WDMD14,Models of OSS Project Meta-information: A Dataset of Three Forges
,Repository Data & Metadata,GVSZ14a,Lean GHTorrent: GitHub Data on Demand
,Repository Data & Metadata,FHMF14,Kataribe: A Hosting Service of Historage Repositories
,Repository Data & Metadata,BAKO14a,Gentoo Package Dependencies over Time
,Repository Data & Metadata,ZH14,A Green Miner's Dataset: Mining the Impact of Software Change on Energy Consumption
,Repository Data & Metadata,GZ14a,A Dataset for Pull-based Development Research
,Repository Data & Metadata,Zac15,The Debsources Dataset: Two Decades of Debian Source Code Metadata
,Repository Data & Metadata,ASDW15,A Novel Industry Grade Dataset for Fault Prediction Based on Model-driven Developed Automotive Embedded Software
,Repository Data & Metadata,BLSS15,"FUSE: A Reproducible, Extendable, Internet-scale Corpus of Spreadsheets"
,Repository Data & Metadata,GRI15,The MetricsGrimoire Database Collection
,Repository Data & Metadata,KMLG15,Generating the Blueprints of the Java Ecosystem
,Repository Data & Metadata,PANM16a,A Dataset of Simplified Syntax Trees for C\#
,Repository Data & Metadata,NMS17,A Data Set of OCL Expressions on GitHub
,Repository Data & Metadata,RHHC17,An Extensive Dataset of UML Models in GitHub
,Repository Data & Metadata,SZC18,Structured Information on State and Evolution of Dockerfiles on GitHub
,Repository Data & Metadata,CPDT18,npm-miner: An Infrastructure for Measuring the Quality of the npm Registry
,Repository Data & Metadata,MAL18a,"50K-C: A Dataset of Compilable, and Compiled, Java Projects"
,Repository Data & Metadata,ML18a,Public Git Archive: A Big Code Dataset for All
Mobile Application Data & Metadata,Software Development Process,HKYC13,Who Does What During a Code Review? Datasets of OSS Peer Review Repositories
,Software Development Process,Squ13b,Project Roles in the Apache Software Foundation: A Dataset
,Software Development Process,DHPK13,A Dataset from Change History to Support Evaluation of Software Maintenance Tasks
,Software Development Process,PC14,A Dataset of Feature Additions and Feature Removals from the Linux Kernel
,Software Development Process,WY15,An Architectural Evolution Dataset
,Software Development Process,MBSG15,Dataset of Developer-labeled Commit Messages
,Software Development Process,YKYI16,"Mining the Modern Code Review Repositories: A Dataset of People, Process and Product"
,Software Development Process,PKHH18,CROP: Linking Code Reviews to Source Code Changes
,Software Development Process,ECS18,Word Embeddings for the Software Engineering Domain
,Software Evolution,WJS13,A Network of Rails: A Graph Dataset of Ruby on Rails and Associated Projects
,Software Evolution,VSM13,A Historical Dataset of Software Engineering Conferences
,Software Evolution,GCM13,A Historical Dataset for the Gnome Ecosystem
,Software Evolution,BP14,Understanding Software Evolution: The Maisqual Ant Data Set
,Software Evolution,Spi15,A Repository with 44 Years of Unix Evolution
,Software Evolution,GAH15a,A Dataset of the Activity of the Git Super-repository of Linux in 2012
,Software Evolution,PML15,StORMeD: Stack Overflow Ready Made Data
,Software Evolution,Squ16,"Data Sets: The Circle of Life in Ruby Hosting, 2003-2015"
,Software Evolution,YAKG17,"Software Evolution and Quality Data from Controlled, Multiple, Industrial Case Studies"
,Software Evolution,ZLRC17,A Dataset for Dynamic Discovery of Semantic Changes in Version Controlled Software Histories
,Software Evolution,Spi18,Documented Unix Facilities over 48 Years
,Software Evolution,XZ18,A Multi-level Dataset of Linux Kernel Patchwork