﻿code,title,cluster
ABKL16,AndroZoo: Collecting Millions of Android Apps for the Research Community,VCS Primary and Derived Data
AHMR17,"A Dataset of Scratch Programs: Scraped, Shaped and Scored",Computing Education and Programming Practices
ANNN16,MUBench: A Benchmark for API-misuse Detectors,"Software Faults, Failures, Smells"
ASDW15,A Novel Industry Grade Dataset for Fault Prediction Based on Model-driven Developed Automotive Embedded Software,"Software Faults, Failures, Smells"
BAKO14a,Gentoo Package Dependencies over Time,Software Evolution
BLPH13,A Dataset for Evaluating Identifier Splitters,Computational Linguistics
BLSS15,"FUSE: A Reproducible, Extendable, Internet-scale Corpus of Spreadsheets",Group Dynamics
BP14,Understanding Software Evolution: The Maisqual Ant Data Set,Software Evolution
BWYS13,INVocD: Identifier Name Vocabulary Dataset,Computational Linguistics
CHC05,Collaboration Using OSSmole: A Repository of FLOSS Data and Analyses ,VCS Primary and Derived Data
CPDT18,npm-miner: An Infrastructure for Measuring the Quality of the npm Registry,VCS Primary and Derived Data
DHPK13,A Dataset from Change History to Support Evaluation of Software Maintenance Tasks,Software Evolution
ECS18,Word Embeddings for the Software Engineering Domain,Computational Linguistics
FHMF14,Kataribe: A Hosting Service of Historage Repositories,VCS Primary and Derived Data
FTC14,OpenHub: A Scalable Architecture for the Analysis of Software Quality Attributes,VCS Primary and Derived Data
GAH15a,A Dataset of the Activity of the Git Super-repository of Linux in 2012,VCS Primary and Derived Data
GCM13,A Historical Dataset for the Gnome Ecosystem,Software Evolution
GMPP18a,A Graph-based Dataset of Commit History of Real-world Android Apps,VCS Primary and Derived Data
GMS18,VulinOSS: A Dataset of Security Vulnerabilities in Open-source Systems,"Software Faults, Failures, Smells"
Gou13,The GHTorent Dataset and Tool Suite,VCS Primary and Derived Data
GRI15,The MetricsGrimoire Database Collection,VCS Primary and Derived Data
GVSZ14a,Lean GHTorrent: GitHub Data on Demand,VCS Primary and Derived Data
GYJL18a,JBench: A Dataset of Data Races for Concurrency Testing,"Software Faults, Failures, Smells"
GZ14a,A Dataset for Pull-based Development Research,VCS Primary and Derived Data
HKYC13,Who Does What During a Code Review? Datasets of OSS Peer Review Repositories,Group Dynamics
HMMB15a,The Firefox Temporal Defect Dataset,"Software Faults, Failures, Smells"
JHSA13,An Unabridged Source Code Dataset for Research in Software Reuse,VCS Primary and Derived Data
KFHE12,A Linked Data Platform for Mining Software Repositories,VCS Primary and Derived Data
KL14,A Code Clone Oracle,"Software Faults, Failures, Smells"
KMLG15,Generating the Blueprints of the Java Ecosystem,VCS Primary and Derived Data
KMMR15,A Dataset of Open-source Android Applications,VCS Primary and Derived Data
KZKH06,TA-RE: An Exchange Language for Mining Software Repositories,VCS Primary and Derived Data
LPD13,The Eclipse and Mozilla Defect Tracking Dataset: A Genuine Dataset for Mining Bug Information,"Software Faults, Failures, Smells"
LRS14,Generating Duplicate Bug Datasets,"Software Faults, Failures, Smells"
MAL18a,"50K-C: A Dataset of Compilable, and Compiled, Java Projects",VCS Primary and Derived Data
MBR13,Gerrit Software Code Review Data from Android,Group Dynamics
MBSG15,Dataset of Developer-labeled Commit Messages,Computational Linguistics
MHK14,A Dataset of Clone References with Gaps,"Software Faults, Failures, Smells"
MK13,Apache Commits: Social Network Dataset,Group Dynamics
MK17,Continuous Defect Prediction: The Idea and a Related Dataset,"Software Faults, Failures, Smells"
MKLG14,The Bug Catalog of the Maven Ecosystem,"Software Faults, Failures, Smells"
ML18a,Public Git Archive: A Big Code Dataset for All,VCS Primary and Derived Data
MLRW05,Mining Student CVS Repositories for Performance Indicators,Computing Education and Programming Practices
NCL18,A Gold Standard for Emotion Annotation in Stack Overflow,Computational Linguistics
NMS17,A Data Set of OCL Expressions on GitHub,Software Models
NZ10,The Ultimate Debian Database: Consolidating Bazaar Metadata for Quality Assurance and Data Mining,VCS Primary and Derived Data
OKYY15,A Dataset of High Impact Bugs: Manually-classified Issue Reports,"Software Faults, Failures, Smells"
OMDT16,The Emotional Side of Software Developers in JIRA,Computational Linguistics
PANM16a,A Dataset of Simplified Syntax Trees for C\#,Software Models
PC14,A Dataset of Feature Additions and Feature Removals from the Linux Kernel,VCS Primary and Derived Data
PKHH18,CROP: Linking Code Reviews to Source Code Changes,VCS Primary and Derived Data
PML15,StORMeD: Stack Overflow Ready Made Data,Computational Linguistics
PNTB15,Landfill: An Open Dataset of Code Smells with Public Evaluation,"Software Faults, Failures, Smells"
RASV14,"FLOSS 2013: A Survey Dataset about Free Software Contributors: Challenges for Curating, Sharing, and Combining",Enhanced Developer Data
RHHC17,An Extensive Dataset of UML Models in GitHub,Software Models
RVV13,"The Maven Repository Dataset of Metrics, Changes, and Dependencies",VCS Primary and Derived Data
SB15,A Dataset for API Usage,VCS Primary and Derived Data
SBM17,Rediscovery Datasets: Connecting Duplicate Reports,"Software Faults, Failures, Smells"
SLLY18,"Bugs.Jar: A Large-scale, Diverse Dataset of Real-world Java Bugs","Software Faults, Failures, Smells"
Spi15,A Repository with 44 Years of Unix Evolution,Software Evolution
Spi18,Documented Unix Facilities over 48 Years,Software Evolution
Squ13a,Apache-affiliated Twitter Screen Names: A Dataset,Enhanced Developer Data
Squ13b,Project Roles in the Apache Software Foundation: A Dataset,Group Dynamics
Squ16,"Data Sets: The Circle of Life in Ruby Hosting, 2003-2015",Software Evolution
SSHP05,Software Repository Mining with Marmoset: An Automated Programming Project Snapshot and Testing System,VCS Primary and Derived Data
SSOL14,A Dataset for Maven Artifacts and Bug Patterns Found in Them,"Software Faults, Failures, Smells"
SZC18,Structured Information on State and Evolution of Dockerfiles on GitHub,VCS Primary and Derived Data
VSF15a,A Data Set for Social Diversity Studies of GitHub Teams,Group Dynamics
VSM13,A Historical Dataset of Software Engineering Conferences,Group Dynamics
WDMD14,Models of OSS Project Meta-information: A Dataset of Three Forges,VCS Primary and Derived Data
WJS13,A Network of Rails: A Graph Dataset of Ruby on Rails and Associated Projects,Group Dynamics
WY15,An Architectural Evolution Dataset,Software Evolution
XZ18,A Multi-level Dataset of Linux Kernel Patchwork,Software Evolution
YAKG17,"Software Evolution and Quality Data from Controlled, Multiple, Industrial Case Studies",Software Evolution
YKYI16,"Mining the Modern Code Review Repositories: A Dataset of People, Process and Product",Group Dynamics
YLYW18,A Dataset of Duplicate Pull-requests in GitHub,"Software Faults, Failures, Smells"
YPKG18a,Developer Interaction Traces Backed by IDE Screen Recordings from Think Aloud Sessions,Computing Education and Programming Practices
Zac15,The Debsources Dataset: Two Decades of Debian Source Code Metadata,Software Evolution
ZH14,A Green Miner's Dataset: Mining the Impact of Software Change on Energy Consumption,VCS Primary and Derived Data
ZLRC17,A Dataset for Dynamic Discovery of Semantic Changes in Version Controlled Software Histories,VCS Primary and Derived Data
ZZM16,Multi-extract and Multi-level Dataset of Mozilla Issue Tracking History,VCS Primary and Derived Data